<?xml version="1.0" encoding="utf-8"?>
<!-- Generator: Adobe Illustrator 21.0.0, SVG Export Plug-In . SVG Version: 6.00 Build 0)  -->
<svg version="1.1" id="Calque_1" xmlns="http://www.w3.org/2000/svg" xmlns:xlink="http://www.w3.org/1999/xlink" x="0px" y="0px"
	 viewBox="0 0 161.3 94.7" style="enable-background:new 0 0 161.3 94.7;" xml:space="preserve">
<style type="text/css">
	.st0{fill:#FFFFFF;}
	.st1{opacity:0.25;}
	.st2{fill:url(#SVGID_2_);}
</style>
<rect x="4.2" y="-53.5" class="st0" width="146.2" height="50.8"/>
<g class="st1">
	<g>
		<radialGradient id="SVGID_2_" cx="62.25" cy="34.25" r="28.8032" gradientUnits="userSpaceOnUse">
			<stop  offset="0" style="stop-color:#FFFFFF"/>
			<stop  offset="1" style="stop-color:#FFFFFF;stop-opacity:0.4"/>
		</radialGradient>
		<path id="SVGID_1_" class="st2" d="M142.4,84.2c0,0,15,2,9.9-22.8s5.9-24.5,3.7-32.3c-2.2-7.7-20.1-1.2-31.6-3.9
			C112.8,22.4,92,11.9,87.7,14.5s-3.8,12.4-8,11.1C75.5,24.3,74,16.9,74,9.4c0.1-7.5-7.6-2.6-13.2-4.2c-5.6-1.7-9.7,0.3-15.1,9.2
			c-5.5,8.9-23.4,6.4-29.5,15C10,38.1,3.4,49.5,6.2,52.2s13-4.1,24.3,0.8c11.4,4.9,18.4,16.2,28.6,1.9c10.2-14.4,15.5,0.7,18,12.3
			S121,91.5,142.4,84.2"/>
	</g>
</g>
</svg>
