<?xml version="1.0" encoding="utf-8"?>
<!-- Generator: Adobe Illustrator 21.0.0, SVG Export Plug-In . SVG Version: 6.00 Build 0)  -->
<svg version="1.1" id="Calque_1" xmlns="http://www.w3.org/2000/svg" xmlns:xlink="http://www.w3.org/1999/xlink" x="0px" y="0px"
	 viewBox="0 0 302.3 301.7" style="enable-background:new 0 0 302.3 301.7;" xml:space="preserve">
<style type="text/css">
	.st0{fill:#FFFFFF;}
	.st1{clip-path:url(#SVGID_2_);fill:#FFFFFF;}
</style>
<g>
	<path class="st0" d="M78.2,90.3v-1.4l1.8-0.3v-13l-1.8-0.3v-1.4H80h5.3c1.7,0,3.1,0.4,4,1.1c1,0.7,1.5,1.9,1.5,3.3
		c0,0.7-0.2,1.4-0.7,2s-1.1,1-1.8,1.3c0.7,0.1,1.2,0.4,1.7,0.8s0.8,0.9,1.1,1.4c0.3,0.6,0.4,1.2,0.4,1.9c0,1.5-0.5,2.7-1.5,3.5
		s-2.3,1.2-4,1.2L78.2,90.3L78.2,90.3z M82.3,80.8h3.6c0.8,0,1.4-0.2,1.9-0.7s0.7-1.1,0.7-1.9c0-0.9-0.3-1.6-0.8-2
		c-0.6-0.4-1.4-0.7-2.4-0.7h-3C82.3,75.5,82.3,80.8,82.3,80.8z M82.3,88.5H86c1,0,1.8-0.3,2.4-0.8s0.8-1.2,0.8-2.1
		c0-0.6-0.1-1.2-0.3-1.7c-0.2-0.5-0.5-0.8-1-1.1c-0.4-0.2-1-0.4-1.6-0.4h-4.1L82.3,88.5L82.3,88.5z"/>
	<path class="st0" d="M98.7,90.5c-1.1,0-2.1-0.3-2.9-0.8s-1.5-1.3-1.9-2.2c-0.4-0.9-0.7-2-0.7-3.2V84c0-1.2,0.2-2.3,0.7-3.2
		c0.4-0.9,1.1-1.7,1.9-2.2s1.8-0.8,2.9-0.8s2.1,0.3,2.9,0.8s1.5,1.3,1.9,2.2c0.4,0.9,0.7,2,0.7,3.2v0.2c0,1.2-0.2,2.3-0.7,3.2
		c-0.4,0.9-1.1,1.7-1.9,2.2C100.7,90.2,99.8,90.5,98.7,90.5 M98.7,88.8c0.7,0,1.3-0.2,1.8-0.6s0.8-0.9,1.1-1.6
		c0.2-0.7,0.4-1.4,0.4-2.3V84c0-0.9-0.1-1.6-0.4-2.3c-0.2-0.7-0.6-1.2-1.1-1.6s-1.1-0.6-1.8-0.6c-0.7,0-1.3,0.2-1.8,0.6
		s-0.8,0.9-1.1,1.6c-0.2,0.7-0.4,1.4-0.4,2.3v0.2c0,0.9,0.1,1.6,0.4,2.3c0.2,0.7,0.6,1.2,1.1,1.6C97.3,88.6,97.9,88.8,98.7,88.8"/>
	<path class="st0" d="M105.8,90.3v-1.4l1.8-0.3v-8.8l-1.8-0.3V78h3.8l0.2,1.8c0.4-0.6,0.9-1.2,1.5-1.5c0.6-0.4,1.3-0.5,2.1-0.5
		c1.3,0,2.3,0.4,3.1,1.2c0.7,0.8,1.1,2,1.1,3.6v6l1.8,0.3v1.4h-5.9v-1.4l1.8-0.3v-5.9c0-1.1-0.2-1.8-0.6-2.3s-1.1-0.7-2-0.7
		c-0.6,0-1.2,0.2-1.7,0.5s-0.9,0.7-1.2,1.3v7.2l1.8,0.3v1.4L105.8,90.3L105.8,90.3z"/>
	<path class="st0" d="M126.5,90.5c-1.1,0-2.1-0.3-3-0.8c-0.8-0.5-1.5-1.2-1.9-2.2c-0.5-0.9-0.7-2-0.7-3.2v-0.5
		c0-1.2,0.2-2.2,0.7-3.1s1.1-1.6,1.9-2.2c0.8-0.5,1.7-0.8,2.6-0.8c1.1,0,2,0.2,2.8,0.7c0.7,0.5,1.3,1.1,1.7,1.9s0.6,1.8,0.6,2.9v1.4
		h-7.9v0.1c0,0.8,0.2,1.5,0.4,2.1c0.3,0.6,0.6,1.1,1.1,1.4s1.1,0.5,1.8,0.5c0.8,0,1.4-0.1,2-0.3c0.6-0.2,1.1-0.5,1.5-0.9l0.9,1.4
		c-0.4,0.4-1,0.8-1.7,1.1C128.3,90.4,127.5,90.5,126.5,90.5 M123.3,82.9h5.7v-0.3c0-0.6-0.1-1.1-0.3-1.6s-0.5-0.8-0.9-1.1
		c-0.4-0.3-0.9-0.4-1.5-0.4c-0.5,0-1,0.1-1.4,0.4s-0.7,0.7-1,1.2C123.5,81.7,123.3,82.2,123.3,82.9L123.3,82.9z"/>
	<polygon class="st0" points="133,90.8 133,89.4 134.9,89.1 134.9,76.1 133,75.8 133,74.3 134.9,74.3 137.9,74.3 143.2,86.8 
		143.3,86.8 148.4,74.3 153.4,74.3 153.4,75.8 151.5,76.1 151.5,89.1 153.4,89.4 153.4,90.8 147.4,90.8 147.4,89.4 149.4,89.1 
		149.4,84.3 149.4,77.4 149.3,77.3 144,90.2 142.5,90.2 137,77.4 136.9,77.4 137,84.3 137,89.1 139,89.4 139,90.8 	"/>
	<path class="st0" d="M160.8,91c-1.1,0-2.1-0.3-2.9-0.8c-0.8-0.5-1.5-1.3-1.9-2.2c-0.4-0.9-0.7-2-0.7-3.2v-0.2
		c0-1.2,0.2-2.3,0.7-3.2c0.4-0.9,1.1-1.7,1.9-2.2c0.8-0.5,1.8-0.8,2.9-0.8c1.1,0,2.1,0.3,2.9,0.8c0.8,0.5,1.5,1.3,1.9,2.2
		c0.4,0.9,0.7,2,0.7,3.2v0.2c0,1.2-0.2,2.3-0.7,3.2c-0.4,0.9-1.1,1.7-1.9,2.2C162.9,90.8,161.9,91,160.8,91 M160.8,89.3
		c0.7,0,1.3-0.2,1.8-0.6s0.8-0.9,1.1-1.6c0.2-0.7,0.4-1.4,0.4-2.3v-0.2c0-0.9-0.1-1.6-0.4-2.3c-0.2-0.7-0.6-1.2-1.1-1.6
		s-1.1-0.6-1.8-0.6s-1.3,0.2-1.8,0.6s-0.8,0.9-1.1,1.6c-0.2,0.7-0.4,1.4-0.4,2.3v0.2c0,0.9,0.1,1.6,0.4,2.3c0.2,0.7,0.6,1.2,1.1,1.6
		C159.5,89.1,160.1,89.3,160.8,89.3"/>
	<path class="st0" d="M168,90.8v-1.4l1.8-0.3v-8.8L168,80v-1.4h3.8l0.2,1.8c0.4-0.6,0.9-1.2,1.5-1.5c0.6-0.4,1.3-0.5,2.1-0.5
		c1.3,0,2.3,0.4,3.1,1.2c0.7,0.8,1.1,2,1.1,3.6v6l1.8,0.3v1.4h-5.9v-1.4l1.8-0.3v-5.9c0-1.1-0.2-1.8-0.6-2.3c-0.4-0.5-1.1-0.7-2-0.7
		c-0.6,0-1.2,0.2-1.7,0.5s-0.9,0.7-1.2,1.3v7.2l1.8,0.3V91H168V90.8z"/>
	<path class="st0" d="M183.1,90.8v-1.4l1.8-0.3v-8.8l-1.8-0.3v-1.4h4.1v10.5l1.8,0.3v1.4C189,90.8,183.1,90.8,183.1,90.8z
		 M184.9,73.1h2.3v2.4h-2.3V73.1z"/>
	<path class="st0" d="M194.9,91c-0.9,0-1.6-0.3-2.2-0.8c-0.5-0.5-0.8-1.4-0.8-2.6v-7.4H190v-1.7h1.9v-3h2.2v3h2.7v1.7h-2.7v7.4
		c0,0.6,0.1,1,0.4,1.3c0.2,0.3,0.5,0.4,0.9,0.4c0.3,0,0.6,0,0.9-0.1c0.3,0,0.6-0.1,0.8-0.1l0.3,1.5c-0.3,0.1-0.7,0.2-1.2,0.3
		C195.8,91,195.3,91,194.9,91"/>
	<path class="st0" d="M204.2,91c-1.1,0-2.1-0.3-2.9-0.8c-0.8-0.5-1.5-1.3-1.9-2.2c-0.4-0.9-0.7-2-0.7-3.2v-0.2
		c0-1.2,0.2-2.3,0.7-3.2c0.4-0.9,1.1-1.7,1.9-2.2c0.8-0.5,1.8-0.8,2.9-0.8c1.1,0,2.1,0.3,2.9,0.8c0.8,0.5,1.5,1.3,1.9,2.2
		c0.4,0.9,0.7,2,0.7,3.2v0.2c0,1.2-0.2,2.3-0.7,3.2c-0.4,0.9-1.1,1.7-1.9,2.2C206.3,90.8,205.3,91,204.2,91 M204.2,89.3
		c0.7,0,1.3-0.2,1.8-0.6s0.8-0.9,1.1-1.6c0.2-0.7,0.4-1.4,0.4-2.3v-0.2c0-0.9-0.1-1.6-0.4-2.3c-0.2-0.7-0.6-1.2-1.1-1.6
		s-1.1-0.6-1.8-0.6s-1.3,0.2-1.8,0.6s-0.8,0.9-1.1,1.6c-0.2,0.7-0.4,1.4-0.4,2.3v0.2c0,0.9,0.1,1.6,0.4,2.3c0.2,0.7,0.6,1.2,1.1,1.6
		C202.8,89.1,203.4,89.3,204.2,89.3"/>
	<path class="st0" d="M211.3,90.8v-1.4l1.8-0.3v-8.8l-1.8-0.3v-1.4h3.8l0.2,1.6v0.2c0.3-0.6,0.8-1.1,1.3-1.5s1.1-0.5,1.7-0.5
		c0.2,0,0.5,0,0.7,0.1c0.2,0,0.4,0.1,0.5,0.1l-0.3,2.1l-1.6-0.1c-0.6,0-1.1,0.1-1.5,0.4s-0.7,0.7-0.9,1.2v6.9l1.8,0.3v1.4
		L211.3,90.8L211.3,90.8z"/>
	<path class="st0" d="M223.3,78.7c0-0.5,0.1-1,0.4-1.5c0.2-0.4,0.6-0.8,1-1.1c0.4-0.3,0.9-0.4,1.4-0.4s1,0.1,1.4,0.4s0.8,0.6,1,1.1
		c0.2,0.4,0.4,0.9,0.4,1.5c0,0.5-0.1,1-0.4,1.4c-0.2,0.4-0.6,0.8-1,1.1c-0.4,0.3-0.9,0.4-1.4,0.4s-1-0.1-1.4-0.4s-0.8-0.6-1-1.1
		C223.5,79.7,223.3,79.2,223.3,78.7 M223.6,78.7c0,0.5,0.1,0.9,0.3,1.3s0.5,0.7,0.9,1c0.4,0.2,0.8,0.4,1.3,0.4s0.9-0.1,1.3-0.4
		c0.4-0.2,0.7-0.6,0.9-1s0.3-0.9,0.3-1.3c0-0.5-0.1-0.9-0.3-1.3s-0.5-0.7-0.9-1c-0.4-0.2-0.8-0.4-1.3-0.4s-0.9,0.1-1.3,0.4
		c-0.4,0.2-0.7,0.6-0.9,1C223.7,77.8,223.6,78.2,223.6,78.7 M225.4,78.9v1.4h-0.2V77h0.9c0.7,0,1.1,0.3,1.1,0.9
		c0,0.4-0.2,0.6-0.6,0.8c0.3,0.1,0.5,0.4,0.5,0.8c0,0.3,0,0.5,0.1,0.6v0.1H227c0-0.1-0.1-0.3-0.1-0.7c0-0.2,0-0.4-0.1-0.5
		s-0.3-0.2-0.5-0.2L225.4,78.9L225.4,78.9z M225.4,78.7h0.8c0.2,0,0.4-0.1,0.6-0.2c0.2-0.1,0.2-0.3,0.2-0.5c0-0.3-0.1-0.4-0.2-0.5
		c-0.1-0.1-0.4-0.2-0.7-0.2h-0.8L225.4,78.7L225.4,78.7z"/>
	<g>
		<path class="st0" d="M85.4,134.6l4.2,9.9l4.2-9.9H95v11.3h-1V141l0.1-5l-4.2,9.9h-0.7L85,136l0.1,5v4.9h-1v-11.3L85.4,134.6
			L85.4,134.6z"/>
		<path class="st0" d="M100.8,146.1c-0.7,0-1.4-0.2-1.9-0.5c-0.6-0.4-1-0.8-1.3-1.5c-0.3-0.6-0.5-1.3-0.5-2.1v-0.3
			c0-0.8,0.2-1.5,0.5-2.2c0.3-0.6,0.7-1.2,1.3-1.5c0.6-0.4,1.2-0.6,1.8-0.6c1,0,1.8,0.3,2.4,1s0.9,1.6,0.9,2.8v0.5h-6v0.2
			c0,0.9,0.3,1.7,0.8,2.4c0.5,0.6,1.2,0.9,2.1,0.9c0.5,0,0.9-0.1,1.3-0.3s0.7-0.5,1-0.9l0.6,0.4
			C103.1,145.6,102.1,146.1,100.8,146.1z M100.7,138.2c-0.7,0-1.3,0.3-1.8,0.8s-0.8,1.2-0.9,2.1h5V141c0-0.8-0.3-1.5-0.7-2
			C101.9,138.4,101.4,138.2,100.7,138.2z"/>
		<path class="st0" d="M105.4,141.6c0-1.3,0.3-2.3,0.9-3.1s1.4-1.2,2.4-1.2c1.1,0,2,0.4,2.6,1.3V134h0.9v11.9h-0.9v-1.1
			c-0.6,0.8-1.5,1.3-2.6,1.3c-1,0-1.7-0.4-2.3-1.2c-0.6-0.8-0.9-1.8-0.9-3.1L105.4,141.6L105.4,141.6z M106.3,141.8
			c0,1.1,0.2,1.9,0.6,2.5s1,0.9,1.8,0.9c1.1,0,1.9-0.5,2.4-1.5v-3.9c-0.5-1.1-1.3-1.6-2.4-1.6c-0.8,0-1.4,0.3-1.8,0.9
			C106.6,139.7,106.3,140.6,106.3,141.8z"/>
		<path class="st0" d="M114.5,135.1c0-0.2,0.1-0.3,0.2-0.4c0.1-0.1,0.3-0.2,0.5-0.2s0.4,0.1,0.5,0.2c0.1,0.1,0.2,0.3,0.2,0.4
			s-0.1,0.3-0.2,0.4c-0.1,0.1-0.3,0.2-0.5,0.2s-0.4-0.1-0.5-0.2C114.6,135.4,114.5,135.3,114.5,135.1z M115.6,145.9h-0.9v-8.4h0.9
			V145.9z"/>
		<path class="st0" d="M121.2,145.3c0.6,0,1.2-0.2,1.6-0.5c0.4-0.4,0.7-0.8,0.7-1.4h0.9c0,0.5-0.2,1-0.5,1.4s-0.7,0.7-1.2,1
			c-0.5,0.2-1,0.4-1.6,0.4c-1.1,0-2-0.4-2.6-1.1c-0.6-0.8-1-1.8-1-3.1v-0.3c0-0.8,0.1-1.6,0.4-2.2c0.3-0.6,0.7-1.1,1.2-1.5
			c0.5-0.3,1.2-0.5,1.9-0.5c0.9,0,1.7,0.3,2.3,0.8c0.6,0.5,0.9,1.3,1,2.2h-0.9c0-0.7-0.3-1.2-0.7-1.6c-0.4-0.4-1-0.6-1.6-0.6
			c-0.8,0-1.5,0.3-1.9,0.9c-0.5,0.6-0.7,1.4-0.7,2.5v0.3c0,1.1,0.2,1.9,0.7,2.5C119.7,145,120.4,145.3,121.2,145.3z"/>
		<path class="st0" d="M131.6,145.9c-0.1-0.3-0.2-0.7-0.2-1.2c-0.3,0.4-0.7,0.7-1.2,1c-0.5,0.2-1,0.3-1.6,0.3c-0.8,0-1.5-0.2-2-0.7
			c-0.5-0.4-0.7-1-0.7-1.7c0-0.8,0.3-1.5,1-1.9c0.7-0.5,1.6-0.7,2.8-0.7h1.7v-1c0-0.6-0.2-1.1-0.6-1.4c-0.4-0.3-0.9-0.5-1.6-0.5
			c-0.6,0-1.2,0.2-1.6,0.5s-0.6,0.7-0.6,1.2h-0.9c0-0.7,0.3-1.2,0.9-1.7s1.4-0.7,2.3-0.7c0.9,0,1.7,0.2,2.2,0.7s0.8,1.1,0.8,2v4
			c0,0.8,0.1,1.4,0.3,1.8v0.1h-1V145.9z M128.7,145.2c0.6,0,1.2-0.1,1.7-0.4c0.5-0.3,0.8-0.7,1.1-1.2v-1.8h-1.7
			c-0.9,0-1.6,0.2-2.2,0.5c-0.5,0.3-0.8,0.8-0.8,1.3s0.2,0.9,0.5,1.2C127.6,145.1,128.1,145.2,128.7,145.2z"/>
		<path class="st0" d="M135.8,145.9h-0.9V134h0.9V145.9z"/>
		<path class="st0" d="M148.5,142.7h-5.1l-1.2,3.2h-1l4.3-11.3h0.9l4.3,11.3h-1L148.5,142.7z M143.6,141.9h4.5l-2.3-6.1L143.6,141.9
			z"/>
		<path class="st0" d="M157.1,143.8c0-0.5-0.2-0.8-0.6-1.1c-0.4-0.3-0.9-0.5-1.7-0.7c-0.7-0.2-1.3-0.3-1.7-0.5s-0.7-0.5-0.9-0.7
			c-0.2-0.3-0.3-0.6-0.3-1.1c0-0.7,0.3-1.2,0.8-1.6c0.6-0.4,1.3-0.6,2.1-0.6c0.9,0,1.7,0.2,2.2,0.7c0.6,0.5,0.8,1.1,0.8,1.8H157
			c0-0.5-0.2-0.9-0.6-1.2c-0.4-0.3-0.9-0.5-1.6-0.5c-0.6,0-1.1,0.1-1.5,0.4c-0.4,0.3-0.6,0.6-0.6,1.1c0,0.4,0.2,0.7,0.5,1
			s0.9,0.4,1.7,0.6c0.8,0.2,1.4,0.4,1.8,0.6c0.4,0.2,0.7,0.5,0.9,0.8s0.3,0.7,0.3,1.1c0,0.7-0.3,1.3-0.9,1.7
			c-0.6,0.4-1.3,0.6-2.2,0.6c-1,0-1.8-0.2-2.4-0.7c-0.6-0.5-0.9-1.1-0.9-1.8h0.9c0,0.5,0.3,1,0.7,1.3s1,0.5,1.7,0.5
			c0.6,0,1.2-0.1,1.6-0.4C156.9,144.6,157.1,144.2,157.1,143.8z"/>
		<path class="st0" d="M165.1,143.8c0-0.5-0.2-0.8-0.6-1.1c-0.4-0.3-0.9-0.5-1.7-0.7c-0.7-0.2-1.3-0.3-1.7-0.5s-0.7-0.5-0.9-0.7
			c-0.2-0.3-0.3-0.6-0.3-1.1c0-0.7,0.3-1.2,0.8-1.6c0.6-0.4,1.3-0.6,2.1-0.6c0.9,0,1.7,0.2,2.2,0.7c0.6,0.5,0.8,1.1,0.8,1.8H165
			c0-0.5-0.2-0.9-0.6-1.2c-0.4-0.3-0.9-0.5-1.6-0.5c-0.6,0-1.1,0.1-1.5,0.4c-0.4,0.3-0.6,0.6-0.6,1.1c0,0.4,0.2,0.7,0.5,1
			c0.3,0.2,0.9,0.4,1.7,0.6c0.8,0.2,1.4,0.4,1.8,0.6c0.4,0.2,0.7,0.5,0.9,0.8s0.3,0.7,0.3,1.1c0,0.7-0.3,1.3-0.9,1.7
			c-0.6,0.4-1.3,0.6-2.2,0.6c-1,0-1.8-0.2-2.4-0.7c-0.6-0.5-0.9-1.1-0.9-1.8h0.9c0,0.5,0.3,1,0.7,1.3s1,0.5,1.7,0.5
			c0.6,0,1.2-0.1,1.6-0.4C164.9,144.6,165.1,144.2,165.1,143.8z"/>
		<path class="st0" d="M171.3,146.1c-0.7,0-1.4-0.2-1.9-0.5c-0.6-0.4-1-0.8-1.3-1.5c-0.3-0.6-0.5-1.3-0.5-2.1v-0.3
			c0-0.8,0.2-1.5,0.5-2.2c0.3-0.6,0.7-1.2,1.3-1.5c0.6-0.4,1.2-0.6,1.8-0.6c1,0,1.8,0.3,2.4,1c0.6,0.7,0.9,1.6,0.9,2.8v0.5h-6v0.2
			c0,0.9,0.3,1.7,0.8,2.4c0.5,0.6,1.2,0.9,2.1,0.9c0.5,0,0.9-0.1,1.3-0.3c0.4-0.2,0.7-0.5,1-0.9l0.6,0.4
			C173.6,145.6,172.6,146.1,171.3,146.1z M171.1,138.2c-0.7,0-1.3,0.3-1.8,0.8s-0.8,1.2-0.9,2.1h5V141c0-0.8-0.3-1.5-0.7-2
			C172.4,138.4,171.8,138.2,171.1,138.2z"/>
		<path class="st0" d="M181.3,143.8c0-0.5-0.2-0.8-0.6-1.1c-0.4-0.3-0.9-0.5-1.7-0.7c-0.7-0.2-1.3-0.3-1.7-0.5s-0.7-0.5-0.9-0.7
			c-0.2-0.3-0.3-0.6-0.3-1.1c0-0.7,0.3-1.2,0.8-1.6c0.6-0.4,1.3-0.6,2.1-0.6c0.9,0,1.7,0.2,2.2,0.7c0.6,0.5,0.8,1.1,0.8,1.8h-0.9
			c0-0.5-0.2-0.9-0.6-1.2c-0.4-0.3-0.9-0.5-1.5-0.5s-1.1,0.1-1.5,0.4c-0.4,0.3-0.6,0.6-0.6,1.1c0,0.4,0.2,0.7,0.5,1
			c0.3,0.2,0.9,0.4,1.7,0.6c0.8,0.2,1.4,0.4,1.8,0.6c0.4,0.2,0.7,0.5,0.9,0.8s0.3,0.7,0.3,1.1c0,0.7-0.3,1.3-0.9,1.7
			c-0.6,0.4-1.3,0.6-2.2,0.6c-1,0-1.8-0.2-2.4-0.7c-0.6-0.5-0.9-1.1-0.9-1.8h0.9c0,0.5,0.3,1,0.7,1.3s1,0.5,1.7,0.5
			c0.6,0,1.2-0.1,1.6-0.4C181.1,144.6,181.3,144.2,181.3,143.8z"/>
		<path class="st0" d="M189.3,143.8c0-0.5-0.2-0.8-0.6-1.1c-0.4-0.3-0.9-0.5-1.7-0.7c-0.7-0.2-1.3-0.3-1.7-0.5s-0.7-0.5-0.9-0.7
			c-0.2-0.3-0.3-0.6-0.3-1.1c0-0.7,0.3-1.2,0.8-1.6c0.6-0.4,1.3-0.6,2.1-0.6c0.9,0,1.7,0.2,2.2,0.7c0.6,0.5,0.8,1.1,0.8,1.8h-0.9
			c0-0.5-0.2-0.9-0.6-1.2c-0.4-0.3-0.9-0.5-1.6-0.5c-0.6,0-1.1,0.1-1.5,0.4c-0.4,0.3-0.6,0.6-0.6,1.1c0,0.4,0.2,0.7,0.5,1
			c0.3,0.2,0.9,0.4,1.7,0.6c0.8,0.2,1.4,0.4,1.8,0.6c0.4,0.2,0.7,0.5,0.9,0.8s0.3,0.7,0.3,1.1c0,0.7-0.3,1.3-0.9,1.7
			c-0.6,0.4-1.3,0.6-2.2,0.6c-1,0-1.8-0.2-2.4-0.7c-0.6-0.5-0.9-1.1-0.9-1.8h0.9c0,0.5,0.3,1,0.7,1.3s1,0.5,1.7,0.5
			c0.6,0,1.2-0.1,1.6-0.4C189.1,144.6,189.3,144.2,189.3,143.8z"/>
		<path class="st0" d="M193.1,137.5v1.4c0.3-0.5,0.7-0.9,1.2-1.1c0.5-0.3,1-0.4,1.5-0.4c1.3,0,2.2,0.5,2.5,1.6
			c0.3-0.5,0.7-0.9,1.2-1.2s1.1-0.4,1.7-0.4c1.8,0,2.7,1,2.7,2.9v5.6H203v-5.5c0-0.7-0.2-1.3-0.5-1.7s-0.8-0.5-1.6-0.5
			c-0.7,0-1.2,0.2-1.7,0.6c-0.5,0.4-0.7,0.9-0.8,1.5v5.5h-0.9v-5.6c0-0.7-0.2-1.3-0.5-1.6c-0.3-0.4-0.8-0.5-1.5-0.5
			c-0.6,0-1.1,0.2-1.5,0.5s-0.7,0.8-0.9,1.5v5.7h-0.9v-8.4L193.1,137.5L193.1,137.5z"/>
		<path class="st0" d="M209.6,146.1c-0.7,0-1.4-0.2-1.9-0.5c-0.6-0.4-1-0.8-1.3-1.5c-0.3-0.6-0.5-1.3-0.5-2.1v-0.3
			c0-0.8,0.2-1.5,0.5-2.2c0.3-0.6,0.7-1.2,1.3-1.5c0.6-0.4,1.2-0.6,1.8-0.6c1,0,1.8,0.3,2.4,1c0.6,0.7,0.9,1.6,0.9,2.8v0.5h-6v0.2
			c0,0.9,0.3,1.7,0.8,2.4c0.5,0.6,1.2,0.9,2.1,0.9c0.5,0,0.9-0.1,1.3-0.3c0.4-0.2,0.7-0.5,1-0.9l0.6,0.4
			C211.8,145.6,210.9,146.1,209.6,146.1z M209.4,138.2c-0.7,0-1.3,0.3-1.8,0.8s-0.8,1.2-0.9,2.1h5V141c0-0.8-0.3-1.5-0.7-2
			C210.7,138.4,210.1,138.2,209.4,138.2z"/>
		<path class="st0" d="M215.4,137.5v1.4c0.3-0.5,0.7-0.9,1.2-1.2s1-0.4,1.6-0.4c0.9,0,1.6,0.3,2,0.8s0.7,1.3,0.7,2.3v5.5H220v-5.5
			c0-0.7-0.2-1.3-0.5-1.7s-0.8-0.5-1.5-0.5c-0.6,0-1.1,0.2-1.5,0.5c-0.4,0.4-0.8,0.8-1,1.4v5.7h-0.9v-8.4L215.4,137.5L215.4,137.5z"
			/>
		<path class="st0" d="M224.6,135.4v2.1h1.7v0.8h-1.7v5.6c0,0.5,0.1,0.8,0.3,1s0.4,0.3,0.8,0.3c0.2,0,0.4,0,0.8-0.1v0.8
			c-0.2,0.1-0.6,0.1-1,0.1c-0.6,0-1.1-0.2-1.4-0.6c-0.3-0.4-0.4-0.9-0.4-1.6v-5.6h-1.5v-0.8h1.5v-2.1h0.9V135.4z"/>
	</g>
	<g>
		<path class="st0" d="M69.3,159.5H64v4.6h6.1v0.8h-7v-11.3h7v0.8h-6v4.3h5.3L69.3,159.5L69.3,159.5z"/>
		<path class="st0" d="M74.3,163.6l2.5-7.1h1l-3.1,8.4h-0.8l-3.1-8.4h1L74.3,163.6z"/>
		<path class="st0" d="M84.5,164.9c-0.1-0.3-0.2-0.7-0.2-1.2c-0.3,0.4-0.7,0.7-1.2,1c-0.5,0.2-1,0.3-1.6,0.3c-0.8,0-1.5-0.2-2-0.7
			c-0.5-0.4-0.7-1-0.7-1.7c0-0.8,0.3-1.5,1-1.9s1.6-0.7,2.8-0.7h1.7v-1c0-0.6-0.2-1.1-0.6-1.4c-0.4-0.3-0.9-0.5-1.6-0.5
			c-0.6,0-1.2,0.2-1.6,0.5s-0.6,0.7-0.6,1.2H79c0-0.7,0.3-1.2,0.9-1.7s1.4-0.7,2.3-0.7s1.7,0.2,2.2,0.7s0.8,1.1,0.8,2v4
			c0,0.8,0.1,1.4,0.3,1.8v0.1h-1V164.9z M81.6,164.2c0.6,0,1.2-0.1,1.7-0.4c0.5-0.3,0.8-0.7,1.1-1.2v-1.8h-1.7
			c-0.9,0-1.6,0.2-2.2,0.5c-0.5,0.3-0.8,0.8-0.8,1.3s0.2,0.9,0.5,1.2S81,164.2,81.6,164.2z"/>
		<path class="st0" d="M88.7,164.9h-0.9V153h0.9V164.9z"/>
		<path class="st0" d="M96.6,163.8c-0.6,0.8-1.4,1.2-2.7,1.2c-0.9,0-1.6-0.3-2-0.8c-0.5-0.5-0.7-1.3-0.7-2.3v-5.4h0.9v5.3
			c0,1.6,0.6,2.4,1.9,2.4s2.2-0.6,2.5-1.7v-6.1h0.9v8.4h-0.9L96.6,163.8z"/>
		<path class="st0" d="M105.2,164.9c-0.1-0.3-0.2-0.7-0.2-1.2c-0.3,0.4-0.7,0.7-1.2,1c-0.5,0.2-1,0.3-1.6,0.3c-0.8,0-1.5-0.2-2-0.7
			c-0.5-0.4-0.7-1-0.7-1.7c0-0.8,0.3-1.5,1-1.9c0.7-0.5,1.6-0.7,2.8-0.7h1.7v-1c0-0.6-0.2-1.1-0.6-1.4c-0.4-0.3-0.9-0.5-1.6-0.5
			c-0.6,0-1.2,0.2-1.6,0.5s-0.6,0.7-0.6,1.2h-0.9c0-0.7,0.3-1.2,0.9-1.7s1.4-0.7,2.3-0.7s1.7,0.2,2.2,0.7s0.8,1.1,0.8,2v4
			c0,0.8,0.1,1.4,0.3,1.8v0.1h-1V164.9z M102.3,164.2c0.6,0,1.2-0.1,1.7-0.4c0.5-0.3,0.8-0.7,1.1-1.2v-1.8h-1.7
			c-0.9,0-1.6,0.2-2.2,0.5c-0.5,0.3-0.8,0.8-0.8,1.3s0.2,0.9,0.5,1.2C101.3,164.1,101.7,164.2,102.3,164.2z"/>
		<path class="st0" d="M109.8,154.4v2.1h1.7v0.8h-1.7v5.6c0,0.5,0.1,0.8,0.3,1c0.2,0.2,0.4,0.3,0.8,0.3c0.2,0,0.4,0,0.7-0.1v0.8
			c-0.2,0.1-0.6,0.1-1,0.1c-0.6,0-1.1-0.2-1.4-0.6c-0.3-0.4-0.4-0.9-0.4-1.6v-5.6h-1.5v-0.8h1.5v-2.1h1V154.4z"/>
		<path class="st0" d="M113.4,154.1c0-0.2,0.1-0.3,0.2-0.4c0.1-0.1,0.3-0.2,0.5-0.2s0.4,0.1,0.5,0.2c0.1,0.1,0.2,0.3,0.2,0.4
			s-0.1,0.3-0.2,0.4c-0.1,0.1-0.3,0.2-0.5,0.2s-0.4-0.1-0.5-0.2C113.5,154.4,113.4,154.3,113.4,154.1z M114.5,164.9h-0.9v-8.4h0.9
			V164.9z"/>
		<path class="st0" d="M116.5,160.6c0-0.8,0.2-1.5,0.5-2.2c0.3-0.6,0.8-1.1,1.3-1.5c0.6-0.4,1.2-0.5,1.9-0.5c1.1,0,2,0.4,2.7,1.2
			s1,1.8,1,3.1v0.2c0,0.8-0.2,1.5-0.5,2.2c-0.3,0.6-0.8,1.1-1.3,1.5c-0.6,0.4-1.2,0.5-1.9,0.5c-1.1,0-2-0.4-2.7-1.2s-1-1.8-1-3.1
			V160.6z M117.4,160.8c0,1,0.3,1.8,0.8,2.5c0.5,0.6,1.2,1,2,1s1.5-0.3,2-1c0.5-0.6,0.8-1.5,0.8-2.5v-0.2c0-0.6-0.1-1.2-0.4-1.8
			c-0.2-0.5-0.6-0.9-1-1.2s-0.9-0.4-1.5-0.4c-0.8,0-1.5,0.3-2,1C117.6,158.8,117.3,159.7,117.4,160.8L117.4,160.8L117.4,160.8z"/>
		<path class="st0" d="M126.8,156.5v1.4c0.3-0.5,0.7-0.9,1.2-1.2s1-0.4,1.6-0.4c0.9,0,1.6,0.3,2,0.8s0.7,1.3,0.7,2.3v5.5h-0.9v-5.5
			c0-0.7-0.2-1.3-0.5-1.7s-0.8-0.5-1.5-0.5c-0.6,0-1.1,0.2-1.5,0.5c-0.4,0.4-0.8,0.8-1,1.4v5.7H126v-8.4L126.8,156.5L126.8,156.5z"
			/>
		<path class="st0" d="M143.7,164.9c-0.1-0.3-0.2-0.7-0.2-1.2c-0.3,0.4-0.7,0.7-1.2,1c-0.5,0.2-1,0.3-1.6,0.3c-0.8,0-1.5-0.2-2-0.7
			c-0.5-0.4-0.7-1-0.7-1.7c0-0.8,0.3-1.5,1-1.9c0.7-0.5,1.6-0.7,2.8-0.7h1.7v-1c0-0.6-0.2-1.1-0.6-1.4c-0.4-0.3-0.9-0.5-1.6-0.5
			c-0.6,0-1.2,0.2-1.6,0.5c-0.4,0.3-0.6,0.7-0.6,1.2h-0.9c0-0.7,0.3-1.2,0.9-1.7c0.6-0.5,1.4-0.7,2.3-0.7c0.9,0,1.7,0.2,2.2,0.7
			s0.8,1.1,0.8,2v4c0,0.8,0.1,1.4,0.3,1.8v0.1h-1V164.9z M140.8,164.2c0.6,0,1.2-0.1,1.7-0.4c0.5-0.3,0.8-0.7,1.1-1.2v-1.8h-1.7
			c-0.9,0-1.6,0.2-2.2,0.5c-0.5,0.3-0.8,0.8-0.8,1.3s0.2,0.9,0.5,1.2C139.8,164.1,140.3,164.2,140.8,164.2z"/>
		<path class="st0" d="M147.8,156.5v1.4c0.3-0.5,0.7-0.9,1.2-1.2s1-0.4,1.6-0.4c0.9,0,1.6,0.3,2,0.8s0.7,1.3,0.7,2.3v5.5h-0.9v-5.5
			c0-0.7-0.2-1.3-0.5-1.7s-0.8-0.5-1.5-0.5c-0.6,0-1.1,0.2-1.5,0.5c-0.4,0.4-0.8,0.8-1,1.4v5.7H147v-8.4L147.8,156.5L147.8,156.5z"
			/>
		<path class="st0" d="M155.2,160.6c0-1.3,0.3-2.3,0.9-3.1c0.6-0.8,1.4-1.2,2.4-1.2c1.1,0,2,0.4,2.6,1.3V153h0.9v11.9h-0.9v-1.1
			c-0.6,0.8-1.5,1.3-2.6,1.3c-1,0-1.7-0.4-2.3-1.2s-0.9-1.8-0.9-3.1L155.2,160.6L155.2,160.6z M156.2,160.8c0,1.1,0.2,1.9,0.6,2.5
			c0.4,0.6,1,0.9,1.8,0.9c1.1,0,1.9-0.5,2.4-1.5v-3.9c-0.5-1.1-1.3-1.6-2.4-1.6c-0.8,0-1.4,0.3-1.8,0.9
			C156.4,158.7,156.2,159.6,156.2,160.8z"/>
		<path class="st0" d="M169.6,164.9h-1v-11.3h1V164.9z"/>
		<path class="st0" d="M173.4,156.5v1.4c0.3-0.5,0.7-0.9,1.2-1.2s1-0.4,1.6-0.4c0.9,0,1.6,0.3,2,0.8s0.7,1.3,0.7,2.3v5.5H178v-5.5
			c0-0.7-0.2-1.3-0.5-1.7s-0.8-0.5-1.5-0.5c-0.6,0-1.1,0.2-1.5,0.5c-0.4,0.4-0.8,0.8-1,1.4v5.7h-0.9v-8.4L173.4,156.5L173.4,156.5z"
			/>
		<path class="st0" d="M181.8,164.9v-7.6h-1.4v-0.8h1.4v-1c0-0.9,0.2-1.5,0.7-2c0.4-0.5,1-0.7,1.8-0.7c0.4,0,0.7,0,1,0.1l-0.1,0.8
			c-0.3-0.1-0.5-0.1-0.8-0.1c-0.5,0-0.9,0.2-1.2,0.5s-0.4,0.8-0.4,1.4v1h2v0.8h-2v7.6H181.8z"/>
		<path class="st0" d="M185.9,160.6c0-0.8,0.2-1.5,0.5-2.2c0.3-0.6,0.8-1.1,1.3-1.5c0.6-0.4,1.2-0.5,1.9-0.5c1.1,0,2,0.4,2.7,1.2
			s1,1.8,1,3.1v0.2c0,0.8-0.2,1.5-0.5,2.2c-0.3,0.6-0.8,1.1-1.3,1.5c-0.6,0.4-1.2,0.5-1.9,0.5c-1.1,0-2-0.4-2.7-1.2s-1-1.8-1-3.1
			V160.6z M186.8,160.8c0,1,0.3,1.8,0.8,2.5c0.5,0.6,1.2,1,2,1s1.5-0.3,2-1c0.5-0.6,0.8-1.5,0.8-2.5v-0.2c0-0.6-0.1-1.2-0.4-1.8
			c-0.2-0.5-0.6-0.9-1-1.2s-0.9-0.4-1.5-0.4c-0.8,0-1.5,0.3-2,1C187,158.8,186.7,159.7,186.8,160.8L186.8,160.8L186.8,160.8z"/>
		<path class="st0" d="M199.1,157.3c-0.2,0-0.4-0.1-0.6-0.1c-0.6,0-1.1,0.2-1.5,0.5s-0.7,0.8-0.9,1.4v5.7h-0.9v-8.4h0.9v1.3
			c0.5-1,1.3-1.5,2.4-1.5c0.3,0,0.5,0,0.6,0.1V157.3z"/>
		<path class="st0" d="M201.4,156.5v1.4c0.3-0.5,0.7-0.9,1.2-1.1c0.5-0.3,1-0.4,1.5-0.4c1.3,0,2.2,0.5,2.5,1.6
			c0.3-0.5,0.7-0.9,1.2-1.2s1.1-0.4,1.7-0.4c1.8,0,2.7,1,2.7,2.9v5.6h-0.9v-5.5c0-0.7-0.2-1.3-0.5-1.7s-0.8-0.5-1.6-0.5
			c-0.7,0-1.2,0.2-1.7,0.6c-0.5,0.4-0.7,0.9-0.8,1.5v5.5H206v-5.6c0-0.7-0.2-1.3-0.5-1.6c-0.3-0.4-0.8-0.5-1.5-0.5
			c-0.6,0-1.1,0.2-1.5,0.5s-0.7,0.8-0.9,1.5v5.7h-0.9v-8.4L201.4,156.5L201.4,156.5z"/>
		<path class="st0" d="M219.9,164.9c-0.1-0.3-0.2-0.7-0.2-1.2c-0.3,0.4-0.7,0.7-1.2,1c-0.5,0.2-1,0.3-1.6,0.3c-0.8,0-1.5-0.2-2-0.7
			c-0.5-0.4-0.7-1-0.7-1.7c0-0.8,0.3-1.5,1-1.9c0.7-0.5,1.6-0.7,2.8-0.7h1.7v-1c0-0.6-0.2-1.1-0.6-1.4c-0.4-0.3-0.9-0.5-1.6-0.5
			c-0.6,0-1.2,0.2-1.6,0.5c-0.4,0.3-0.6,0.7-0.6,1.2h-0.9c0-0.7,0.3-1.2,0.9-1.7c0.6-0.5,1.4-0.7,2.3-0.7c0.9,0,1.7,0.2,2.2,0.7
			s0.8,1.1,0.8,2v4c0,0.8,0.1,1.4,0.3,1.8v0.1h-1V164.9z M217,164.2c0.6,0,1.2-0.1,1.7-0.4c0.5-0.3,0.8-0.7,1.1-1.2v-1.8h-1.7
			c-0.9,0-1.6,0.2-2.2,0.5c-0.5,0.3-0.8,0.8-0.8,1.3s0.2,0.9,0.5,1.2C216,164.1,216.4,164.2,217,164.2z"/>
		<path class="st0" d="M224.6,154.4v2.1h1.7v0.8h-1.7v5.6c0,0.5,0.1,0.8,0.3,1s0.4,0.3,0.8,0.3c0.2,0,0.4,0,0.8-0.1v0.8
			c-0.2,0.1-0.6,0.1-1,0.1c-0.6,0-1.1-0.2-1.4-0.6c-0.3-0.4-0.4-0.9-0.4-1.6v-5.6h-1.5v-0.8h1.5v-2.1h0.9V154.4z"/>
		<path class="st0" d="M228.1,154.1c0-0.2,0.1-0.3,0.2-0.4c0.1-0.1,0.3-0.2,0.5-0.2s0.4,0.1,0.5,0.2c0.1,0.1,0.2,0.3,0.2,0.4
			s-0.1,0.3-0.2,0.4c-0.1,0.1-0.3,0.2-0.5,0.2s-0.4-0.1-0.5-0.2C228.2,154.4,228.1,154.3,228.1,154.1z M229.2,164.9h-0.9v-8.4h0.9
			V164.9z"/>
		<path class="st0" d="M231.2,160.6c0-0.8,0.2-1.5,0.5-2.2c0.3-0.6,0.8-1.1,1.3-1.5c0.6-0.4,1.2-0.5,1.9-0.5c1.1,0,2,0.4,2.7,1.2
			s1,1.8,1,3.1v0.2c0,0.8-0.2,1.5-0.5,2.2c-0.3,0.6-0.8,1.1-1.3,1.5c-0.6,0.4-1.2,0.5-1.9,0.5c-1.1,0-2-0.4-2.7-1.2s-1-1.8-1-3.1
			V160.6z M232.2,160.8c0,1,0.3,1.8,0.8,2.5c0.5,0.6,1.2,1,2,1s1.5-0.3,2-1c0.5-0.6,0.8-1.5,0.8-2.5v-0.2c0-0.6-0.1-1.2-0.4-1.8
			c-0.2-0.5-0.6-0.9-1-1.2s-0.9-0.4-1.5-0.4c-0.8,0-1.5,0.3-2,1C232.4,158.8,232.1,159.7,232.2,160.8L232.2,160.8L232.2,160.8z"/>
		<path class="st0" d="M241.5,156.5v1.4c0.3-0.5,0.7-0.9,1.2-1.2s1-0.4,1.6-0.4c0.9,0,1.6,0.3,2,0.8s0.7,1.3,0.7,2.3v5.5h-1v-5.5
			c0-0.7-0.2-1.3-0.5-1.7s-0.8-0.5-1.5-0.5c-0.6,0-1.1,0.2-1.5,0.5c-0.4,0.4-0.8,0.8-1,1.4v5.7h-0.9v-8.4L241.5,156.5L241.5,156.5z"
			/>
	</g>
	<g>
		<path class="st0" d="M84.3,173.4h-3.9v10.5h-1v-10.5h-3.8v-0.8h8.7C84.3,172.6,84.3,173.4,84.3,173.4z"/>
		<path class="st0" d="M89.2,176.3c-0.2,0-0.4-0.1-0.6-0.1c-0.6,0-1.1,0.2-1.5,0.5s-0.7,0.8-0.9,1.4v5.7h-0.9v-8.4h0.9v1.3
			c0.5-1,1.3-1.5,2.4-1.5c0.3,0,0.5,0,0.6,0.1V176.3z"/>
		<path class="st0" d="M93.8,184.1c-0.7,0-1.4-0.2-1.9-0.5c-0.6-0.4-1-0.8-1.3-1.5c-0.3-0.6-0.5-1.3-0.5-2.1v-0.3
			c0-0.8,0.2-1.5,0.5-2.2c0.3-0.6,0.7-1.2,1.3-1.5c0.6-0.4,1.2-0.6,1.8-0.6c1,0,1.8,0.3,2.4,1s0.9,1.6,0.9,2.8v0.5h-6v0.2
			c0,0.9,0.3,1.7,0.8,2.4c0.5,0.6,1.2,0.9,2.1,0.9c0.5,0,0.9-0.1,1.3-0.3s0.7-0.5,1-0.9l0.6,0.4C96.1,183.6,95.1,184.1,93.8,184.1z
			 M93.6,176.2c-0.7,0-1.3,0.3-1.8,0.8s-0.8,1.2-0.9,2.1h5V179c0-0.8-0.3-1.5-0.7-2C94.9,176.4,94.3,176.2,93.6,176.2z"/>
		<path class="st0" d="M104,183.9c-0.1-0.3-0.2-0.7-0.2-1.2c-0.3,0.4-0.7,0.7-1.2,1c-0.5,0.2-1,0.3-1.6,0.3c-0.8,0-1.5-0.2-2-0.7
			c-0.5-0.4-0.7-1-0.7-1.7c0-0.8,0.3-1.5,1-1.9c0.7-0.5,1.6-0.7,2.8-0.7h1.7v-1c0-0.6-0.2-1.1-0.6-1.4c-0.4-0.3-0.9-0.5-1.6-0.5
			c-0.6,0-1.2,0.2-1.6,0.5s-0.6,0.7-0.6,1.2h-0.9c0-0.7,0.3-1.2,0.9-1.7s1.4-0.7,2.3-0.7s1.7,0.2,2.2,0.7s0.8,1.1,0.8,2v4
			c0,0.8,0.1,1.4,0.3,1.8v0.1h-1V183.9z M101.1,183.2c0.6,0,1.2-0.1,1.7-0.4c0.5-0.3,0.8-0.7,1.1-1.2v-1.8h-1.7
			c-0.9,0-1.6,0.2-2.2,0.5c-0.5,0.3-0.8,0.8-0.8,1.3s0.2,0.9,0.5,1.2S100.5,183.2,101.1,183.2z"/>
		<path class="st0" d="M108.6,173.4v2.1h1.7v0.8h-1.7v5.6c0,0.5,0.1,0.8,0.3,1c0.2,0.2,0.4,0.3,0.8,0.3c0.2,0,0.4,0,0.8-0.1v0.8
			c-0.2,0.1-0.6,0.1-1,0.1c-0.6,0-1.1-0.2-1.4-0.6c-0.3-0.4-0.4-0.9-0.4-1.6v-5.6h-1.5v-0.8h1.5v-2.1h0.9V173.4z"/>
		<path class="st0" d="M113.1,175.5v1.4c0.3-0.5,0.7-0.9,1.2-1.1c0.5-0.3,1-0.4,1.5-0.4c1.3,0,2.2,0.5,2.5,1.6
			c0.3-0.5,0.7-0.9,1.2-1.2s1.1-0.4,1.7-0.4c1.8,0,2.7,1,2.7,2.9v5.6H123v-5.5c0-0.7-0.2-1.3-0.5-1.7s-0.8-0.5-1.6-0.5
			c-0.7,0-1.2,0.2-1.7,0.6c-0.5,0.4-0.7,0.9-0.8,1.5v5.5h-0.9v-5.6c0-0.7-0.2-1.3-0.5-1.6c-0.3-0.4-0.8-0.5-1.5-0.5
			c-0.6,0-1.1,0.2-1.5,0.5s-0.7,0.8-0.9,1.5v5.7h-0.9v-8.4L113.1,175.5L113.1,175.5z"/>
		<path class="st0" d="M129.6,184.1c-0.7,0-1.4-0.2-1.9-0.5c-0.6-0.4-1-0.8-1.3-1.5c-0.3-0.6-0.5-1.3-0.5-2.1v-0.3
			c0-0.8,0.2-1.5,0.5-2.2c0.3-0.6,0.7-1.2,1.3-1.5c0.6-0.4,1.2-0.6,1.8-0.6c1,0,1.8,0.3,2.4,1s0.9,1.6,0.9,2.8v0.5h-6v0.2
			c0,0.9,0.3,1.7,0.8,2.4c0.5,0.6,1.2,0.9,2.1,0.9c0.5,0,0.9-0.1,1.3-0.3c0.4-0.2,0.7-0.5,1-0.9l0.6,0.4
			C131.8,183.6,130.9,184.1,129.6,184.1z M129.4,176.2c-0.7,0-1.3,0.3-1.8,0.8s-0.8,1.2-0.9,2.1h5V179c0-0.8-0.3-1.5-0.7-2
			S130.1,176.2,129.4,176.2z"/>
		<path class="st0" d="M135.4,175.5v1.4c0.3-0.5,0.7-0.9,1.2-1.2s1-0.4,1.6-0.4c0.9,0,1.6,0.3,2,0.8s0.7,1.3,0.7,2.3v5.5H140v-5.5
			c0-0.7-0.2-1.3-0.5-1.7s-0.8-0.5-1.5-0.5c-0.6,0-1.1,0.2-1.5,0.5c-0.4,0.4-0.8,0.8-1,1.4v5.7h-0.9v-8.4L135.4,175.5L135.4,175.5z"
			/>
		<path class="st0" d="M144.6,173.4v2.1h1.7v0.8h-1.7v5.6c0,0.5,0.1,0.8,0.3,1s0.4,0.3,0.8,0.3c0.2,0,0.4,0,0.8-0.1v0.8
			c-0.2,0.1-0.6,0.1-1,0.1c-0.6,0-1.1-0.2-1.4-0.6c-0.3-0.4-0.4-0.9-0.4-1.6v-5.6h-1.5v-0.8h1.5v-2.1h0.9V173.4z"/>
		<path class="st0" d="M153.3,181.8c0-0.5-0.2-0.8-0.6-1.1c-0.4-0.3-0.9-0.5-1.7-0.7c-0.7-0.2-1.3-0.3-1.7-0.5s-0.7-0.5-0.9-0.7
			c-0.2-0.3-0.3-0.6-0.3-1.1c0-0.7,0.3-1.2,0.8-1.6c0.6-0.4,1.3-0.6,2.1-0.6c0.9,0,1.7,0.2,2.2,0.7c0.6,0.5,0.8,1.1,0.8,1.8h-0.9
			c0-0.5-0.2-0.9-0.6-1.2c-0.4-0.3-0.9-0.5-1.5-0.5s-1.1,0.1-1.5,0.4c-0.4,0.3-0.6,0.6-0.6,1.1c0,0.4,0.2,0.7,0.5,1
			c0.3,0.2,0.9,0.4,1.7,0.6c0.8,0.2,1.4,0.4,1.8,0.6c0.4,0.2,0.7,0.5,0.9,0.8s0.3,0.7,0.3,1.1c0,0.7-0.3,1.3-0.9,1.7
			c-0.6,0.4-1.3,0.6-2.2,0.6c-1,0-1.8-0.2-2.4-0.7c-0.6-0.5-0.9-1.1-0.9-1.8h0.9c0,0.5,0.3,1,0.7,1.3s1,0.5,1.7,0.5
			c0.6,0,1.2-0.1,1.6-0.4C153.1,182.6,153.3,182.2,153.3,181.8z"/>
		<path class="st0" d="M161.6,172.6l4.2,9.9l4.2-9.9h1.3v11.3h-1V179l0.1-5l-4.2,9.9h-0.7l-4.2-9.9l0.1,5v4.9h-1v-11.3L161.6,172.6
			L161.6,172.6z"/>
		<path class="st0" d="M173.3,179.6c0-0.8,0.2-1.5,0.5-2.2c0.3-0.6,0.8-1.1,1.3-1.5c0.6-0.4,1.2-0.5,1.9-0.5c1.1,0,2,0.4,2.7,1.2
			s1,1.8,1,3.1v0.2c0,0.8-0.2,1.5-0.5,2.2c-0.3,0.6-0.8,1.1-1.3,1.5c-0.6,0.4-1.2,0.5-1.9,0.5c-1.1,0-2-0.4-2.7-1.2s-1-1.8-1-3.1
			V179.6z M174.3,179.8c0,1,0.3,1.8,0.8,2.5c0.5,0.6,1.2,1,2,1s1.5-0.3,2-1c0.5-0.6,0.8-1.5,0.8-2.5v-0.2c0-0.6-0.1-1.2-0.4-1.8
			c-0.2-0.5-0.6-0.9-1-1.2s-0.9-0.4-1.5-0.4c-0.8,0-1.5,0.3-2,1C174.5,177.8,174.2,178.7,174.3,179.8L174.3,179.8L174.3,179.8z"/>
		<path class="st0" d="M183.6,175.5v1.4c0.3-0.5,0.7-0.9,1.2-1.2s1-0.4,1.6-0.4c0.9,0,1.6,0.3,2,0.8s0.7,1.3,0.7,2.3v5.5h-0.9v-5.5
			c0-0.7-0.2-1.3-0.5-1.7s-0.8-0.5-1.5-0.5c-0.6,0-1.1,0.2-1.5,0.5c-0.4,0.4-0.8,0.8-1,1.4v5.7h-0.9v-8.4L183.6,175.5L183.6,175.5z"
			/>
		<path class="st0" d="M191.4,173.1c0-0.2,0.1-0.3,0.2-0.4c0.1-0.1,0.3-0.2,0.5-0.2s0.4,0.1,0.5,0.2c0.1,0.1,0.2,0.3,0.2,0.4
			s-0.1,0.3-0.2,0.4c-0.1,0.1-0.3,0.2-0.5,0.2s-0.4-0.1-0.5-0.2C191.4,173.4,191.4,173.3,191.4,173.1z M192.4,183.9h-0.9v-8.4h0.9
			V183.9z"/>
		<path class="st0" d="M196.4,173.4v2.1h1.7v0.8h-1.7v5.6c0,0.5,0.1,0.8,0.3,1s0.4,0.3,0.8,0.3c0.2,0,0.4,0,0.8-0.1v0.8
			c-0.2,0.1-0.6,0.1-1,0.1c-0.6,0-1.1-0.2-1.4-0.6c-0.3-0.4-0.4-0.9-0.4-1.6v-5.6H194v-0.8h1.5v-2.1h0.9V173.4z"/>
		<path class="st0" d="M199.4,179.6c0-0.8,0.2-1.5,0.5-2.2c0.3-0.6,0.8-1.1,1.3-1.5c0.6-0.4,1.2-0.5,1.9-0.5c1.1,0,2,0.4,2.7,1.2
			s1,1.8,1,3.1v0.2c0,0.8-0.2,1.5-0.5,2.2c-0.3,0.6-0.8,1.1-1.3,1.5c-0.6,0.4-1.2,0.5-1.9,0.5c-1.1,0-2-0.4-2.7-1.2s-1-1.8-1-3.1
			V179.6z M200.3,179.8c0,1,0.3,1.8,0.8,2.5c0.5,0.6,1.2,1,2,1s1.5-0.3,2-1c0.5-0.6,0.8-1.5,0.8-2.5v-0.2c0-0.6-0.1-1.2-0.4-1.8
			s-0.6-0.9-1-1.2s-0.9-0.4-1.5-0.4c-0.8,0-1.5,0.3-2,1C200.5,177.8,200.2,178.7,200.3,179.8L200.3,179.8L200.3,179.8z"/>
		<path class="st0" d="M212.6,176.3c-0.2,0-0.4-0.1-0.6-0.1c-0.6,0-1.1,0.2-1.5,0.5s-0.7,0.8-0.9,1.4v5.7h-0.9v-8.4h0.9v1.3
			c0.5-1,1.3-1.5,2.4-1.5c0.3,0,0.5,0,0.6,0.1V176.3z"/>
		<path class="st0" d="M214,173.1c0-0.2,0.1-0.3,0.2-0.4c0.1-0.1,0.3-0.2,0.5-0.2s0.4,0.1,0.5,0.2c0.1,0.1,0.2,0.3,0.2,0.4
			s-0.1,0.3-0.2,0.4c-0.1,0.1-0.3,0.2-0.5,0.2s-0.4-0.1-0.5-0.2C214.1,173.4,214,173.3,214,173.1z M215.1,183.9h-0.9v-8.4h0.9V183.9
			z"/>
		<path class="st0" d="M218.5,175.5v1.4c0.3-0.5,0.7-0.9,1.2-1.2s1-0.4,1.6-0.4c0.9,0,1.6,0.3,2,0.8s0.7,1.3,0.7,2.3v5.5h-1v-5.5
			c0-0.7-0.2-1.3-0.5-1.7s-0.8-0.5-1.5-0.5c-0.6,0-1.1,0.2-1.5,0.5c-0.4,0.4-0.8,0.8-1,1.4v5.7h-0.9v-8.4L218.5,175.5L218.5,175.5z"
			/>
		<path class="st0" d="M226,179.6c0-1.3,0.3-2.3,0.9-3.1c0.6-0.8,1.4-1.1,2.4-1.1c1.1,0,2,0.5,2.6,1.4v-1.2h0.9v8.2
			c0,1.1-0.3,1.9-0.9,2.6c-0.6,0.6-1.4,0.9-2.5,0.9c-0.6,0-1.1-0.1-1.7-0.4c-0.5-0.3-0.9-0.6-1.2-1l0.5-0.6c0.7,0.8,1.4,1.2,2.3,1.2
			c0.8,0,1.4-0.2,1.8-0.7c0.4-0.5,0.7-1.1,0.7-1.9v-1.1c-0.6,0.8-1.5,1.2-2.6,1.2c-1,0-1.7-0.4-2.3-1.2S226,181,226,179.6L226,179.6
			z M226.9,179.8c0,1.1,0.2,1.9,0.6,2.5c0.4,0.6,1,0.9,1.8,0.9c1.1,0,1.9-0.5,2.4-1.5v-3.9c-0.2-0.5-0.5-0.9-0.9-1.2
			s-0.9-0.4-1.5-0.4c-0.8,0-1.4,0.3-1.8,0.9S226.9,178.6,226.9,179.8z"/>
	</g>
	<g>
		<path class="st0" d="M98.5,202.1h5.6v0.8h-6.5v-11.3h1L98.5,202.1L98.5,202.1z"/>
		<path class="st0" d="M108.9,203c-0.7,0-1.4-0.2-1.9-0.5c-0.6-0.4-1-0.8-1.3-1.5c-0.3-0.6-0.5-1.3-0.5-2.1v-0.3
			c0-0.8,0.2-1.5,0.5-2.2c0.3-0.6,0.7-1.2,1.3-1.5c0.6-0.4,1.2-0.6,1.8-0.6c1,0,1.8,0.3,2.4,1s0.9,1.6,0.9,2.8v0.5h-6v0.2
			c0,0.9,0.3,1.7,0.8,2.4c0.5,0.6,1.2,0.9,2.1,0.9c0.5,0,0.9-0.1,1.3-0.3s0.7-0.5,1-0.9l0.6,0.4C111.2,202.6,110.2,203,108.9,203z
			 M108.7,195.2c-0.7,0-1.3,0.3-1.8,0.8s-0.8,1.2-0.9,2.1h5V198c0-0.8-0.3-1.5-0.7-2C110,195.4,109.4,195.2,108.7,195.2z"/>
		<path class="st0" d="M115.3,192.4v2.1h1.7v0.8h-1.7v5.6c0,0.5,0.1,0.8,0.3,1c0.2,0.2,0.4,0.3,0.8,0.3c0.2,0,0.4,0,0.7-0.1v0.8
			c-0.2,0.1-0.6,0.1-1,0.1c-0.6,0-1.1-0.2-1.4-0.6s-0.4-0.9-0.4-1.6v-5.6h-1.5v-0.8h1.5v-2.1h1V192.4z"/>
		<path class="st0" d="M120.3,192.4v2.1h1.7v0.8h-1.7v5.6c0,0.5,0.1,0.8,0.3,1c0.2,0.2,0.4,0.3,0.8,0.3c0.2,0,0.4,0,0.8-0.1v0.8
			c-0.2,0.1-0.6,0.1-1,0.1c-0.6,0-1.1-0.2-1.4-0.6c-0.3-0.4-0.4-0.9-0.4-1.6v-5.6h-1.5v-0.8h1.5v-2.1h0.9V192.4z"/>
		<path class="st0" d="M127.2,203c-0.7,0-1.4-0.2-1.9-0.5c-0.6-0.4-1-0.8-1.3-1.5c-0.3-0.6-0.5-1.3-0.5-2.1v-0.3
			c0-0.8,0.2-1.5,0.5-2.2c0.3-0.6,0.7-1.2,1.3-1.5c0.6-0.4,1.2-0.6,1.8-0.6c1,0,1.8,0.3,2.4,1s0.9,1.6,0.9,2.8v0.5h-6v0.2
			c0,0.9,0.3,1.7,0.8,2.4c0.5,0.6,1.2,0.9,2.1,0.9c0.5,0,0.9-0.1,1.3-0.3s0.7-0.5,1-0.9l0.6,0.4C129.5,202.6,128.5,203,127.2,203z
			 M127.1,195.2c-0.7,0-1.3,0.3-1.8,0.8s-0.8,1.2-0.9,2.1h5V198c0-0.8-0.3-1.5-0.7-2C128.3,195.4,127.8,195.2,127.1,195.2z"/>
		<path class="st0" d="M136,195.3c-0.2,0-0.4-0.1-0.6-0.1c-0.6,0-1.1,0.2-1.5,0.5s-0.7,0.8-0.9,1.4v5.7h-0.9v-8.4h0.9v1.3
			c0.5-1,1.3-1.5,2.4-1.5c0.3,0,0.5,0,0.6,0.1V195.3z"/>
		<path class="st0" d="M148.9,192.4H145v10.5h-1v-10.5h-3.8v-0.8h8.7V192.4z"/>
		<path class="st0" d="M153,203c-0.7,0-1.4-0.2-1.9-0.5c-0.6-0.4-1-0.8-1.3-1.5c-0.3-0.6-0.5-1.3-0.5-2.1v-0.3
			c0-0.8,0.2-1.5,0.5-2.2c0.3-0.6,0.7-1.2,1.3-1.5c0.6-0.4,1.2-0.6,1.8-0.6c1,0,1.8,0.3,2.4,1c0.6,0.7,0.9,1.6,0.9,2.8v0.5h-6v0.2
			c0,0.9,0.3,1.7,0.8,2.4c0.5,0.6,1.2,0.9,2.1,0.9c0.5,0,0.9-0.1,1.3-0.3c0.4-0.2,0.7-0.5,1-0.9l0.6,0.4
			C155.3,202.6,154.3,203,153,203z M152.8,195.2c-0.7,0-1.3,0.3-1.8,0.8s-0.8,1.2-0.9,2.1h5V198c0-0.8-0.3-1.5-0.7-2
			C154.1,195.4,153.5,195.2,152.8,195.2z"/>
		<path class="st0" d="M158.8,194.5v1.4c0.3-0.5,0.7-0.9,1.2-1.1c0.5-0.3,1-0.4,1.5-0.4c1.3,0,2.2,0.5,2.5,1.6
			c0.3-0.5,0.7-0.9,1.2-1.2s1.1-0.4,1.7-0.4c1.8,0,2.7,1,2.7,2.9v5.6h-0.9v-5.5c0-0.7-0.2-1.3-0.5-1.7s-0.8-0.5-1.6-0.5
			c-0.7,0-1.2,0.2-1.7,0.6c-0.5,0.4-0.7,0.9-0.8,1.5v5.5h-0.9v-5.6c0-0.7-0.2-1.3-0.5-1.6c-0.3-0.4-0.8-0.5-1.5-0.5
			c-0.6,0-1.1,0.2-1.5,0.5s-0.7,0.8-0.9,1.5v5.7h-0.9v-8.4L158.8,194.5L158.8,194.5z"/>
		<path class="st0" d="M178.7,198.8c0,1.3-0.3,2.3-0.9,3.1c-0.6,0.8-1.4,1.1-2.3,1.1c-1.1,0-2-0.4-2.6-1.2v4.3H172v-11.6h0.9v1.2
			c0.6-0.9,1.5-1.3,2.6-1.3c1,0,1.8,0.4,2.4,1.1C178.5,196.3,178.8,197.3,178.7,198.8L178.7,198.8L178.7,198.8z M177.7,198.6
			c0-1.1-0.2-1.9-0.7-2.5c-0.4-0.6-1-0.9-1.8-0.9c-0.6,0-1.1,0.1-1.5,0.4c-0.4,0.3-0.7,0.7-0.9,1.2v4c0.2,0.5,0.5,0.8,1,1.1
			c0.4,0.3,0.9,0.4,1.5,0.4c0.8,0,1.4-0.3,1.8-0.9S177.7,199.8,177.7,198.6z"/>
		<path class="st0" d="M181.8,202.9h-0.9V191h0.9V202.9z"/>
		<path class="st0" d="M189.5,202.9c-0.1-0.3-0.2-0.7-0.2-1.2c-0.3,0.4-0.7,0.7-1.2,1c-0.5,0.2-1,0.3-1.6,0.3c-0.8,0-1.5-0.2-2-0.7
			c-0.5-0.4-0.7-1-0.7-1.7c0-0.8,0.3-1.5,1-1.9c0.7-0.5,1.6-0.7,2.8-0.7h1.7v-1c0-0.6-0.2-1.1-0.6-1.4c-0.4-0.3-0.9-0.5-1.6-0.5
			c-0.6,0-1.2,0.2-1.6,0.5c-0.4,0.3-0.6,0.7-0.6,1.2H184c0-0.7,0.3-1.2,0.9-1.7c0.6-0.5,1.4-0.7,2.3-0.7c0.9,0,1.7,0.2,2.2,0.7
			s0.8,1.1,0.8,2v4c0,0.8,0.1,1.4,0.3,1.8v0.1h-1V202.9z M186.6,202.2c0.6,0,1.2-0.1,1.7-0.4c0.5-0.3,0.8-0.7,1.1-1.2v-1.8h-1.7
			c-0.9,0-1.6,0.2-2.2,0.5c-0.5,0.3-0.8,0.8-0.8,1.3s0.2,0.9,0.5,1.2C185.6,202.1,186.1,202.2,186.6,202.2z"/>
		<path class="st0" d="M194.2,192.4v2.1h1.7v0.8h-1.7v5.6c0,0.5,0.1,0.8,0.3,1s0.4,0.3,0.8,0.3c0.2,0,0.4,0,0.8-0.1v0.8
			c-0.2,0.1-0.6,0.1-1,0.1c-0.6,0-1.1-0.2-1.4-0.6c-0.3-0.4-0.4-0.9-0.4-1.6v-5.6h-1.5v-0.8h1.5v-2.1h0.9V192.4z"/>
		<path class="st0" d="M201.1,203c-0.7,0-1.4-0.2-1.9-0.5c-0.6-0.4-1-0.8-1.3-1.5c-0.3-0.6-0.5-1.3-0.5-2.1v-0.3
			c0-0.8,0.2-1.5,0.5-2.2c0.3-0.6,0.7-1.2,1.3-1.5c0.6-0.4,1.2-0.6,1.8-0.6c1,0,1.8,0.3,2.4,1c0.6,0.7,0.9,1.6,0.9,2.8v0.5h-6v0.2
			c0,0.9,0.3,1.7,0.8,2.4c0.5,0.6,1.2,0.9,2.1,0.9c0.5,0,0.9-0.1,1.3-0.3c0.4-0.2,0.7-0.5,1-0.9l0.6,0.4
			C203.4,202.6,202.4,203,201.1,203z M200.9,195.2c-0.7,0-1.3,0.3-1.8,0.8s-0.8,1.2-0.9,2.1h5V198c0-0.8-0.3-1.5-0.7-2
			C202.2,195.4,201.6,195.2,200.9,195.2z"/>
		<path class="st0" d="M211,200.8c0-0.5-0.2-0.8-0.6-1.1c-0.4-0.3-0.9-0.5-1.7-0.7c-0.7-0.2-1.3-0.3-1.7-0.5s-0.7-0.5-0.9-0.7
			c-0.2-0.3-0.3-0.6-0.3-1.1c0-0.7,0.3-1.2,0.8-1.6c0.6-0.4,1.3-0.6,2.1-0.6c0.9,0,1.7,0.2,2.2,0.7c0.6,0.5,0.8,1.1,0.8,1.8H211
			c0-0.5-0.2-0.9-0.6-1.2c-0.4-0.3-0.9-0.5-1.6-0.5c-0.6,0-1.1,0.1-1.5,0.4c-0.4,0.3-0.6,0.6-0.6,1.1c0,0.4,0.2,0.7,0.5,1
			c0.3,0.2,0.9,0.4,1.7,0.6c0.8,0.2,1.4,0.4,1.8,0.6c0.4,0.2,0.7,0.5,0.9,0.8s0.3,0.7,0.3,1.1c0,0.7-0.3,1.3-0.9,1.7
			c-0.6,0.4-1.3,0.6-2.2,0.6c-1,0-1.8-0.2-2.4-0.7c-0.6-0.5-0.9-1.1-0.9-1.8h0.9c0,0.5,0.3,1,0.7,1.3s1,0.5,1.7,0.5
			c0.6,0,1.2-0.1,1.6-0.4C210.8,201.6,211,201.2,211,200.8z"/>
	</g>
	<g>
		<path class="st0" d="M62.7,216.3l-1.6,1.6v4h-1v-11.3h1v6.1l5.8-6.1H68l-4.7,5l5.1,6.2h-1.2L62.7,216.3z"/>
		<path class="st0" d="M72.9,222c-0.7,0-1.4-0.2-1.9-0.5c-0.6-0.4-1-0.8-1.3-1.5c-0.3-0.6-0.5-1.3-0.5-2.1v-0.3
			c0-0.8,0.2-1.5,0.5-2.2c0.3-0.6,0.7-1.2,1.3-1.5c0.6-0.4,1.2-0.6,1.8-0.6c1,0,1.8,0.3,2.4,1s0.9,1.6,0.9,2.8v0.5h-6v0.2
			c0,0.9,0.3,1.7,0.8,2.4c0.5,0.6,1.2,0.9,2.1,0.9c0.5,0,0.9-0.1,1.3-0.3s0.7-0.5,1-0.9l0.6,0.4C75.2,221.6,74.2,222,72.9,222z
			 M72.8,214.2c-0.7,0-1.3,0.3-1.8,0.8s-0.8,1.2-0.9,2.1h5V217c0-0.8-0.3-1.5-0.7-2C74,214.4,73.5,214.2,72.8,214.2z"/>
		<path class="st0" d="M80.4,220.6l2.4-7h1l-3.6,9.8l-0.2,0.4c-0.5,1-1.2,1.5-2.1,1.5c-0.2,0-0.5,0-0.7-0.1v-0.8h0.5
			c0.5,0,0.8-0.1,1.1-0.3c0.3-0.2,0.5-0.6,0.7-1.2l0.4-1.1l-3.2-8.3h1L80.4,220.6z"/>
		<path class="st0" d="M90.3,217.3v4.6h-1v-11.3h3.8c1.2,0,2.1,0.3,2.8,0.9c0.7,0.6,1,1.4,1,2.5s-0.3,1.9-1,2.4
			c-0.7,0.6-1.6,0.9-2.8,0.9L90.3,217.3L90.3,217.3z M90.3,216.5h2.9c0.9,0,1.6-0.2,2.1-0.7c0.5-0.4,0.7-1.1,0.7-1.8
			c0-0.8-0.2-1.4-0.7-1.9s-1.2-0.7-2.1-0.7h-2.9V216.5z"/>
		<path class="st0" d="M102,222c-0.7,0-1.4-0.2-1.9-0.5c-0.6-0.4-1-0.8-1.3-1.5c-0.3-0.6-0.5-1.3-0.5-2.1v-0.3
			c0-0.8,0.2-1.5,0.5-2.2c0.3-0.6,0.7-1.2,1.3-1.5c0.6-0.4,1.2-0.6,1.8-0.6c1,0,1.8,0.3,2.4,1s0.9,1.6,0.9,2.8v0.5h-6v0.2
			c0,0.9,0.3,1.7,0.8,2.4c0.5,0.6,1.2,0.9,2.1,0.9c0.5,0,0.9-0.1,1.3-0.3s0.7-0.5,1-0.9l0.6,0.4C104.3,221.6,103.3,222,102,222z
			 M101.9,214.2c-0.7,0-1.3,0.3-1.8,0.8s-0.8,1.2-0.9,2.1h5V217c0-0.8-0.3-1.5-0.7-2C103.1,214.4,102.6,214.2,101.9,214.2z"/>
		<path class="st0" d="M110.9,214.3c-0.2,0-0.4-0.1-0.6-0.1c-0.6,0-1.1,0.2-1.5,0.5s-0.7,0.8-0.9,1.4v5.7H107v-8.4h0.9v1.3
			c0.5-1,1.3-1.5,2.4-1.5c0.3,0,0.5,0,0.6,0.1V214.3z"/>
		<path class="st0" d="M113.1,221.9v-7.6h-1.4v-0.8h1.4v-1c0-0.9,0.2-1.5,0.7-2c0.4-0.5,1-0.7,1.8-0.7c0.4,0,0.7,0,1,0.1l-0.1,0.8
			c-0.3-0.1-0.5-0.1-0.8-0.1c-0.5,0-0.9,0.2-1.2,0.5c-0.3,0.3-0.4,0.8-0.4,1.4v1h2v0.8h-2v7.6H113.1z"/>
		<path class="st0" d="M117.2,217.6c0-0.8,0.2-1.5,0.5-2.2c0.3-0.6,0.8-1.1,1.3-1.5c0.6-0.4,1.2-0.5,1.9-0.5c1.1,0,2,0.4,2.7,1.2
			s1,1.8,1,3.1v0.2c0,0.8-0.2,1.5-0.5,2.2c-0.3,0.6-0.8,1.1-1.3,1.5c-0.6,0.4-1.2,0.5-1.9,0.5c-1.1,0-2-0.4-2.7-1.2s-1-1.8-1-3.1
			V217.6z M118.1,217.8c0,1,0.3,1.8,0.8,2.5c0.5,0.6,1.2,1,2,1s1.5-0.3,2-1c0.5-0.6,0.8-1.5,0.8-2.5v-0.2c0-0.6-0.1-1.2-0.4-1.8
			c-0.2-0.5-0.6-0.9-1-1.2s-0.9-0.4-1.5-0.4c-0.8,0-1.5,0.3-2,1C118.3,215.8,118,216.7,118.1,217.8L118.1,217.8L118.1,217.8z"/>
		<path class="st0" d="M130.4,214.3c-0.2,0-0.4-0.1-0.6-0.1c-0.6,0-1.1,0.2-1.5,0.5c-0.4,0.3-0.7,0.8-0.9,1.4v5.7h-0.9v-8.4h0.9v1.3
			c0.5-1,1.3-1.5,2.4-1.5c0.3,0,0.5,0,0.6,0.1V214.3z"/>
		<path class="st0" d="M132.7,213.5v1.4c0.3-0.5,0.7-0.9,1.2-1.1c0.5-0.3,1-0.4,1.5-0.4c1.3,0,2.2,0.5,2.5,1.6
			c0.3-0.5,0.7-0.9,1.2-1.2s1.1-0.4,1.7-0.4c1.8,0,2.7,1,2.7,2.9v5.6h-0.9v-5.5c0-0.7-0.2-1.3-0.5-1.7s-0.8-0.5-1.5-0.5
			s-1.2,0.2-1.7,0.6c-0.5,0.4-0.7,0.9-0.8,1.5v5.5h-0.9v-5.6c0-0.7-0.2-1.3-0.5-1.6c-0.3-0.4-0.8-0.5-1.5-0.5
			c-0.6,0-1.1,0.2-1.5,0.5s-0.7,0.8-0.9,1.5v5.7h-0.9v-8.4L132.7,213.5L132.7,213.5z"/>
		<path class="st0" d="M151.2,221.9c-0.1-0.3-0.2-0.7-0.2-1.2c-0.3,0.4-0.7,0.7-1.2,1c-0.5,0.2-1,0.3-1.6,0.3c-0.8,0-1.5-0.2-2-0.7
			c-0.5-0.4-0.7-1-0.7-1.7c0-0.8,0.3-1.5,1-1.9c0.7-0.5,1.6-0.7,2.8-0.7h1.7v-1c0-0.6-0.2-1.1-0.6-1.4c-0.4-0.3-0.9-0.5-1.6-0.5
			c-0.6,0-1.2,0.2-1.6,0.5c-0.4,0.3-0.6,0.7-0.6,1.2h-0.9c0-0.7,0.3-1.2,0.9-1.7c0.6-0.5,1.4-0.7,2.3-0.7c0.9,0,1.7,0.2,2.2,0.7
			s0.8,1.1,0.8,2v4c0,0.8,0.1,1.4,0.3,1.8v0.1h-1V221.9z M148.3,221.2c0.6,0,1.2-0.1,1.7-0.4c0.5-0.3,0.8-0.7,1.1-1.2v-1.8h-1.7
			c-0.9,0-1.6,0.2-2.2,0.5c-0.5,0.3-0.8,0.8-0.8,1.3s0.2,0.9,0.5,1.2C147.3,221.1,147.7,221.2,148.3,221.2z"/>
		<path class="st0" d="M155.2,213.5v1.4c0.3-0.5,0.7-0.9,1.2-1.2s1-0.4,1.6-0.4c0.9,0,1.6,0.3,2,0.8s0.7,1.3,0.7,2.3v5.5h-0.9v-5.5
			c0-0.7-0.2-1.3-0.5-1.7s-0.8-0.5-1.5-0.5c-0.6,0-1.1,0.2-1.5,0.5c-0.4,0.4-0.8,0.8-1,1.4v5.7h-0.9v-8.4L155.2,213.5L155.2,213.5z"
			/>
		<path class="st0" d="M166.2,221.3c0.6,0,1.2-0.2,1.6-0.5c0.4-0.4,0.7-0.8,0.7-1.4h0.9c0,0.5-0.2,1-0.5,1.4s-0.7,0.7-1.2,1
			c-0.5,0.2-1,0.4-1.6,0.4c-1.1,0-2-0.4-2.6-1.1c-0.6-0.8-1-1.8-1-3.1v-0.3c0-0.8,0.1-1.6,0.4-2.2c0.3-0.6,0.7-1.1,1.2-1.5
			c0.5-0.3,1.2-0.5,1.9-0.5c0.9,0,1.7,0.3,2.3,0.8s0.9,1.3,1,2.2h-0.9c0-0.7-0.3-1.2-0.7-1.6c-0.4-0.4-1-0.6-1.6-0.6
			c-0.8,0-1.5,0.3-1.9,0.9c-0.5,0.6-0.7,1.4-0.7,2.5v0.3c0,1.1,0.2,1.9,0.7,2.5C164.7,221,165.3,221.3,166.2,221.3z"/>
		<path class="st0" d="M174.5,222c-0.7,0-1.4-0.2-1.9-0.5c-0.6-0.4-1-0.8-1.3-1.5c-0.3-0.6-0.5-1.3-0.5-2.1v-0.3
			c0-0.8,0.2-1.5,0.5-2.2c0.3-0.6,0.7-1.2,1.3-1.5c0.6-0.4,1.2-0.6,1.8-0.6c1,0,1.8,0.3,2.4,1c0.6,0.7,0.9,1.6,0.9,2.8v0.5h-6v0.2
			c0,0.9,0.3,1.7,0.8,2.4c0.5,0.6,1.2,0.9,2.1,0.9c0.5,0,0.9-0.1,1.3-0.3c0.4-0.2,0.7-0.5,1-0.9l0.6,0.4
			C176.7,221.6,175.8,222,174.5,222z M174.3,214.2c-0.7,0-1.3,0.3-1.8,0.8s-0.8,1.2-0.9,2.1h5V217c0-0.8-0.3-1.5-0.7-2
			C175.6,214.4,175,214.2,174.3,214.2z"/>
		<path class="st0" d="M184.6,221.9h-1v-11.3h1V221.9z"/>
		<path class="st0" d="M188.3,213.5v1.4c0.3-0.5,0.7-0.9,1.2-1.2s1-0.4,1.6-0.4c0.9,0,1.6,0.3,2,0.8s0.7,1.3,0.7,2.3v5.5h-0.9v-5.5
			c0-0.7-0.2-1.3-0.5-1.7s-0.8-0.5-1.5-0.5c-0.6,0-1.1,0.2-1.5,0.5c-0.4,0.4-0.8,0.8-1,1.4v5.7h-0.9v-8.4L188.3,213.5L188.3,213.5z"
			/>
		<path class="st0" d="M195.8,217.6c0-1.3,0.3-2.3,0.9-3.1c0.6-0.8,1.4-1.2,2.4-1.2c1.1,0,2,0.4,2.6,1.3V210h0.9v11.9h-0.9v-1.1
			c-0.6,0.8-1.5,1.3-2.6,1.3c-1,0-1.7-0.4-2.3-1.2s-0.9-1.8-0.9-3.1L195.8,217.6L195.8,217.6z M196.7,217.8c0,1.1,0.2,1.9,0.6,2.5
			c0.4,0.6,1,0.9,1.8,0.9c1.1,0,1.9-0.5,2.4-1.5v-3.9c-0.5-1.1-1.3-1.6-2.4-1.6c-0.8,0-1.4,0.3-1.8,0.9S196.7,216.6,196.7,217.8z"/>
		<path class="st0" d="M204.9,211.1c0-0.2,0.1-0.3,0.2-0.4c0.1-0.1,0.3-0.2,0.5-0.2s0.4,0.1,0.5,0.2c0.1,0.1,0.2,0.3,0.2,0.4
			c0,0.2-0.1,0.3-0.2,0.4c-0.1,0.1-0.3,0.2-0.5,0.2s-0.4-0.1-0.5-0.2C205,211.4,204.9,211.3,204.9,211.1z M206,221.9h-0.9v-8.4h0.9
			V221.9z"/>
		<path class="st0" d="M211.6,221.3c0.6,0,1.2-0.2,1.6-0.5c0.4-0.4,0.7-0.8,0.7-1.4h0.9c0,0.5-0.2,1-0.5,1.4s-0.7,0.7-1.2,1
			c-0.5,0.2-1,0.4-1.6,0.4c-1.1,0-2-0.4-2.6-1.1c-0.6-0.8-1-1.8-1-3.1v-0.3c0-0.8,0.1-1.6,0.4-2.2c0.3-0.6,0.7-1.1,1.2-1.5
			c0.5-0.3,1.2-0.5,1.9-0.5c0.9,0,1.7,0.3,2.3,0.8s0.9,1.3,1,2.2h-0.9c0-0.7-0.3-1.2-0.7-1.6c-0.4-0.4-1-0.6-1.6-0.6
			c-0.8,0-1.5,0.3-1.9,0.9c-0.5,0.6-0.7,1.4-0.7,2.5v0.3c0,1.1,0.2,1.9,0.7,2.5C210.1,221,210.8,221.3,211.6,221.3z"/>
		<path class="st0" d="M221.9,221.9c-0.1-0.3-0.2-0.7-0.2-1.2c-0.3,0.4-0.7,0.7-1.2,1c-0.5,0.2-1,0.3-1.6,0.3c-0.8,0-1.5-0.2-2-0.7
			c-0.5-0.4-0.7-1-0.7-1.7c0-0.8,0.3-1.5,1-1.9c0.7-0.5,1.6-0.7,2.8-0.7h1.7v-1c0-0.6-0.2-1.1-0.6-1.4c-0.4-0.3-0.9-0.5-1.6-0.5
			c-0.6,0-1.2,0.2-1.6,0.5c-0.4,0.3-0.6,0.7-0.6,1.2h-0.9c0-0.7,0.3-1.2,0.9-1.7c0.6-0.5,1.4-0.7,2.3-0.7c0.9,0,1.7,0.2,2.2,0.7
			s0.8,1.1,0.8,2v4c0,0.8,0.1,1.4,0.3,1.8v0.1h-1V221.9z M219,221.2c0.6,0,1.2-0.1,1.7-0.4c0.5-0.3,0.8-0.7,1.1-1.2v-1.8h-1.7
			c-0.9,0-1.6,0.2-2.2,0.5c-0.5,0.3-0.8,0.8-0.8,1.3s0.2,0.9,0.5,1.2C218,221.1,218.5,221.2,219,221.2z"/>
		<path class="st0" d="M226.6,211.4v2.1h1.7v0.8h-1.7v5.6c0,0.5,0.1,0.8,0.3,1s0.4,0.3,0.8,0.3c0.2,0,0.4,0,0.8-0.1v0.8
			c-0.2,0.1-0.6,0.1-1,0.1c-0.6,0-1.1-0.2-1.4-0.6c-0.3-0.4-0.4-0.9-0.4-1.6v-5.6h-1.5v-0.8h1.5v-2.1h0.9V211.4z"/>
		<path class="st0" d="M229.6,217.6c0-0.8,0.2-1.5,0.5-2.2c0.3-0.6,0.8-1.1,1.3-1.5c0.6-0.4,1.2-0.5,1.9-0.5c1.1,0,2,0.4,2.7,1.2
			s1,1.8,1,3.1v0.2c0,0.8-0.2,1.5-0.5,2.2c-0.3,0.6-0.8,1.1-1.3,1.5c-0.6,0.4-1.2,0.5-1.9,0.5c-1.1,0-2-0.4-2.7-1.2s-1-1.8-1-3.1
			V217.6z M230.5,217.8c0,1,0.3,1.8,0.8,2.5c0.5,0.6,1.2,1,2,1s1.5-0.3,2-1c0.5-0.6,0.8-1.5,0.8-2.5v-0.2c0-0.6-0.1-1.2-0.4-1.8
			c-0.2-0.5-0.6-0.9-1-1.2s-0.9-0.4-1.5-0.4c-0.8,0-1.5,0.3-2,1C230.7,215.8,230.4,216.7,230.5,217.8L230.5,217.8L230.5,217.8z"/>
		<path class="st0" d="M242.8,214.3c-0.2,0-0.4-0.1-0.6-0.1c-0.6,0-1.1,0.2-1.5,0.5s-0.7,0.8-0.9,1.4v5.7h-0.9v-8.4h0.9v1.3
			c0.5-1,1.3-1.5,2.4-1.5c0.3,0,0.5,0,0.6,0.1V214.3z"/>
		<path class="st0" d="M249.3,219.8c0-0.5-0.2-0.8-0.6-1.1c-0.4-0.3-0.9-0.5-1.7-0.7c-0.7-0.2-1.3-0.3-1.7-0.5s-0.7-0.5-0.9-0.7
			c-0.2-0.3-0.3-0.6-0.3-1.1c0-0.7,0.3-1.2,0.8-1.6c0.6-0.4,1.3-0.6,2.1-0.6c0.9,0,1.7,0.2,2.2,0.7c0.6,0.5,0.8,1.1,0.8,1.8h-0.9
			c0-0.5-0.2-0.9-0.6-1.2c-0.4-0.3-0.9-0.5-1.6-0.5c-0.6,0-1.1,0.1-1.5,0.4c-0.4,0.3-0.6,0.6-0.6,1.1c0,0.4,0.2,0.7,0.5,1
			s0.9,0.4,1.7,0.6s1.4,0.4,1.8,0.6c0.4,0.2,0.7,0.5,0.9,0.8s0.3,0.7,0.3,1.1c0,0.7-0.3,1.3-0.9,1.7c-0.6,0.4-1.3,0.6-2.2,0.6
			c-1,0-1.8-0.2-2.4-0.7c-0.6-0.5-0.9-1.1-0.9-1.8h0.9c0,0.5,0.3,1,0.7,1.3s1,0.5,1.7,0.5c0.6,0,1.2-0.1,1.6-0.4
			C249.1,220.6,249.3,220.2,249.3,219.8z"/>
	</g>
	<g>
		<path class="st0" d="M123.2,110.8c0-0.5-0.1-0.8-0.4-1c-0.2-0.2-0.7-0.5-1.3-0.7c-1.1-0.4-1.9-0.9-2.4-1.5s-0.7-1.3-0.7-2
			c0-0.9,0.3-1.7,1-2.3c0.7-0.6,1.5-0.9,2.6-0.9c0.7,0,1.3,0.1,1.8,0.4s1,0.7,1.2,1.2c0.3,0.5,0.4,1.1,0.4,1.8h-2.3
			c0-0.5-0.1-0.9-0.3-1.2c-0.2-0.3-0.5-0.4-1-0.4c-0.4,0-0.7,0.1-0.9,0.4c-0.2,0.2-0.3,0.6-0.3,0.9s0.1,0.6,0.4,0.8
			c0.2,0.3,0.7,0.5,1.3,0.8c1.1,0.4,1.9,0.9,2.4,1.5s0.7,1.3,0.7,2.2c0,1-0.3,1.7-0.9,2.3c-0.6,0.6-1.5,0.8-2.5,0.8
			c-0.7,0-1.4-0.1-2-0.4s-1.1-0.7-1.4-1.3s-0.5-1.2-0.5-2h2.3c0,0.6,0.1,1.1,0.4,1.4s0.7,0.4,1.2,0.4
			C122.8,112,123.2,111.6,123.2,110.8z"/>
		<path class="st0" d="M134.9,109.1c0,1.5-0.4,2.7-1.1,3.5c-0.7,0.8-1.7,1.3-3,1.3s-2.3-0.4-3-1.2c-0.7-0.8-1.1-2-1.1-3.5v-1.9
			c0-1.5,0.4-2.8,1.1-3.6c0.7-0.9,1.7-1.3,3-1.3s2.2,0.4,3,1.3c0.7,0.9,1.1,2,1.1,3.6V109.1z M132.6,107.2c0-1-0.1-1.8-0.4-2.3
			c-0.3-0.5-0.7-0.7-1.3-0.7s-1,0.2-1.3,0.7s-0.4,1.2-0.4,2.2v2c0,1,0.1,1.7,0.4,2.2c0.3,0.5,0.7,0.7,1.4,0.7c0.6,0,1-0.2,1.3-0.7
			s0.4-1.2,0.4-2.1L132.6,107.2L132.6,107.2z"/>
		<path class="st0" d="M142.3,109.1h-3.5v4.6h-2.3v-11.3h6.2v1.9h-4v2.9h3.5v1.9H142.3z"/>
		<path class="st0" d="M151.5,104.4h-2.8v9.4h-2.3v-9.4h-2.7v-1.9h7.8V104.4z"/>
		<path class="st0" d="M160.2,109.5l1.1-7.1h2.3l-2,11.3h-2.3l-1.3-6.6l-1.3,6.6h-2.3l-2-11.3h2.3l1.1,7.1l1.3-7.1h1.9L160.2,109.5z
			"/>
		<path class="st0" d="M169.8,111.4h-3.1l-0.6,2.3h-2.4l3.5-11.3h2.1l3.5,11.3h-2.4L169.8,111.4z M167.2,109.5h2.1l-1.1-4
			L167.2,109.5z"/>
		<path class="st0" d="M177.3,109.6h-1.1v4.1h-2.3v-11.3h3.6c1.1,0,2,0.3,2.6,0.9s0.9,1.4,0.9,2.5c0,1.5-0.5,2.5-1.6,3.1l2,4.6v0.1
			H179L177.3,109.6z M176.2,107.7h1.3c0.5,0,0.8-0.2,1-0.5s0.3-0.7,0.3-1.2c0-1.1-0.4-1.7-1.3-1.7h-1.3V107.7z"/>
		<path class="st0" d="M188.5,108.9H185v3h4.2v1.9h-6.5v-11.3h6.4v1.9h-4.2v2.7h3.5v1.8H188.5z"/>
	</g>
</g>
<g>
	<g>
		<defs>
			<path id="SVGID_1_" d="M46.7,47c-28,28-43.4,65.2-43.4,104.8s15.4,76.8,43.4,104.8S111.9,300,151.5,300s76.8-15.4,104.8-43.4
				s43.4-65.2,43.4-104.8c0-4.6-3.7-8.4-8.4-8.4c-4.6,0-8.4,3.7-8.4,8.4c0,35.1-13.7,68.1-38.5,93c-24.8,24.8-57.9,38.5-93,38.5
				s-68.1-13.7-93-38.5c-24.8-24.8-38.5-57.9-38.5-93s13.7-68.1,38.5-93c24.8-24.8,57.9-38.5,93-38.5c29.1,0,57.3,9.7,80.2,27.3
				l-12,11l47.7,15l-10.8-48.8l-12.4,11.4C218,15.1,185.3,3.6,151.5,3.6C112,3.6,74.7,19,46.7,47"/>
		</defs>
		<use xlink:href="#SVGID_1_"  style="overflow:visible;fill:#FFFFFF;"/>
		<clipPath id="SVGID_2_">
			<use xlink:href="#SVGID_1_"  style="overflow:visible;"/>
		</clipPath>
		<rect x="3.3" y="3.6" class="st1" width="296.4" height="296.4"/>
	</g>
</g>
</svg>
